<?xml version="1.0" encoding="utf-8"?>
<!-- Generator: Adobe Illustrator 24.1.0, SVG Export Plug-In . SVG Version: 6.00 Build 0)  -->
<svg version="1.1" id="Layer_1" xmlns="http://www.w3.org/2000/svg" xmlns:xlink="http://www.w3.org/1999/xlink" x="0px" y="0px"
	 viewBox="0 0 25 25" style="enable-background:new 0 0 25 25;" xml:space="preserve">
<style type="text/css">
	.st0{fill-rule:evenodd;clip-rule:evenodd;fill:#27AAE1;}
</style>
<path class="st0" d="M17.3,3.1c0.6,0,1.1,0.3,1.5,0.7L18.9,4l3.7,5.1c0.5,0.8,0.5,1.8,0,2.5l-0.1,0.1l-9.3,10.6
	c-0.5,0.5-1.3,0.6-1.8,0.1l-0.1-0.1L2.1,11.8C1.5,11.1,1.4,10,1.9,9.2L2,9.1L5.7,4C6,3.5,6.5,3.2,7.1,3.1l0.2,0H17.3z M14.8,11.5
	H9.8l2.5,6.6L14.8,11.5z M20.1,11.5H17l-2.4,6.3L20.1,11.5z M7.6,11.5H4.5l5.5,6.3L7.6,11.5z M12.7,5.2h-0.8l-2,4.2h4.8L12.7,5.2z
	 M17.3,5.2h-2.4l2,4.2h3.4L17.3,5.2z M9.7,5.2H7.3l-3,4.2h3.4L9.7,5.2z"/>
</svg>
