<?xml version="1.0" encoding="utf-8"?>
<!-- Generator: Adobe Illustrator 24.1.0, SVG Export Plug-In . SVG Version: 6.00 Build 0)  -->
<svg version="1.1" id="Layer_1" xmlns="http://www.w3.org/2000/svg" xmlns:xlink="http://www.w3.org/1999/xlink" x="0px" y="0px"
	 viewBox="0 0 25 25" style="enable-background:new 0 0 25 25;" xml:space="preserve">
<style type="text/css">
	.st0{fill:none;stroke:#27AAE1;stroke-width:2;stroke-linecap:round;stroke-linejoin:round;}
</style>
<path class="st0" d="M11.4,3.6c0.4-0.7,1.3-0.7,1.7,0L15.7,8c0.1,0.2,0.4,0.4,0.6,0.5l4.8,1.2c0.7,0.2,1,1.1,0.5,1.7l-3.2,3.9
	c-0.2,0.2-0.3,0.5-0.2,0.8l0.4,5.1c0.1,0.8-0.7,1.4-1.4,1l-4.6-2c-0.3-0.1-0.5-0.1-0.8,0l-4.6,2c-0.7,0.3-1.5-0.3-1.4-1L6.4,16
	c0-0.3-0.1-0.6-0.2-0.8l-3.2-3.9c-0.5-0.6-0.2-1.5,0.5-1.7l4.8-1.2C8.5,8.4,8.7,8.2,8.9,8L11.4,3.6z"/>
</svg>
