<svg width="19" height="25" viewBox="0 0 19 25" fill="none" xmlns="http://www.w3.org/2000/svg">
<path d="M1.04166 5.25C1.04166 3.24797 2.66462 1.625 4.66666 1.625H10.4151C11.3765 1.625 12.2986 2.00692 12.9784 2.68674L16.8966 6.60493C17.5764 7.28475 17.9583 8.20678 17.9583 9.16819V19.75C17.9583 21.752 16.3354 23.375 14.3333 23.375H4.66666C2.66462 23.375 1.04166 21.752 1.04166 19.75V5.25Z" stroke="#B7B7B7" stroke-width="2" stroke-linecap="round" stroke-linejoin="round"/>
<path d="M5.875 6.45834H7.08333M5.875 13.7083H13.125M10.7083 18.5417H13.125" stroke="#B7B7B7" stroke-width="2" stroke-linecap="round" stroke-linejoin="round"/>
</svg>
