<svg width="24" height="23" viewBox="0 0 24 23" fill="none" xmlns="http://www.w3.org/2000/svg">
<path d="M1.33334 5.66666C1.33334 3.45752 3.1242 1.66666 5.33334 1.66666H18.6667C20.8758 1.66666 22.6667 3.45752 22.6667 5.66666V13.6667C22.6667 15.8758 20.8758 17.6667 18.6667 17.6667H5.33334L1.33334 21.6667V5.66666Z" stroke="#B7B7B7" stroke-width="2" stroke-linejoin="round"/>
<path d="M12 5.66669L12 9.66669M12.6667 13.6667H11.3333" stroke="#B7B7B7" stroke-width="2" stroke-linecap="round" stroke-linejoin="round"/>
</svg>
